…
``` r
view(litters_df)
skimr::skim(litters_df)
read_csv("./data/FAS_litters.csv", na = c(".","NA"), skip = 2)
```

“read_csv” functions

# need to read into excel spreadsheet

``` r
read_excel("./data/mlb11.xlsx")
```

    ## # A tibble: 30 × 12
    ##    team         runs at_bats  hits homer…¹ bat_avg strik…² stole…³  wins new_o…⁴
    ##    <chr>       <dbl>   <dbl> <dbl>   <dbl>   <dbl>   <dbl>   <dbl> <dbl>   <dbl>
    ##  1 Texas Rang…   855    5659  1599     210   0.283     930     143    96   0.34 
    ##  2 Boston Red…   875    5710  1600     203   0.28     1108     102    90   0.349
    ##  3 Detroit Ti…   787    5563  1540     169   0.277    1143      49    95   0.34 
    ##  4 Kansas Cit…   730    5672  1560     129   0.275    1006     153    71   0.329
    ##  5 St. Louis …   762    5532  1513     162   0.273     978      57    90   0.341
    ##  6 New York M…   718    5600  1477     108   0.264    1085     130    77   0.335
    ##  7 New York Y…   867    5518  1452     222   0.263    1138     147    97   0.343
    ##  8 Milwaukee …   721    5447  1422     185   0.261    1083      94    96   0.325
    ##  9 Colorado R…   735    5544  1429     163   0.258    1201     118    73   0.329
    ## 10 Houston As…   615    5598  1442      95   0.258    1164     118    56   0.311
    ## # … with 20 more rows, 2 more variables: new_slug <dbl>, new_obs <dbl>, and
    ## #   abbreviated variable names ¹​homeruns, ²​strikeouts, ³​stolen_bases,
    ## #   ⁴​new_onbase
…
pups_data = read_csv("./data/FAS_pups.csv",
  col_types = "ciiiii")
pups_data = janitor::clean_names(pups_data)
```

# select function

``` r
#select the variables you want:
select(litters_data, group, litter_number, gd0_weight, pups_born_alive)
```

    ## # A tibble: 49 × 4
    ##   group litter_number gd0_weight pups_born_alive
    ##   <chr> <chr>              <dbl>           <int>
    ## 1 Con7  #85                 19.7               3
    ## 2 Con7  #1/2/95/2           27                 8
    ## 3 Con7  #5/5/3/83/3-3       26                 6
    ## # … with 46 more rows

``` r
#specify a range of columns to keep
select(litters_data,group:gd_of_birth)
```

    ## # A tibble: 49 × 5
    ##   group litter_number gd0_weight gd18_weight gd_of_birth
    ##   <chr> <chr>              <dbl>       <dbl>       <int>
    ## 1 Con7  #85                 19.7        34.7          20
    ## 2 Con7  #1/2/95/2           27          42            19
    ## 3 Con7  #5/5/3/83/3-3       26          41.4          19
    ## # … with 46 more rows
